<svg xmlns="http://www.w3.org/2000/svg" width="5" height="5">
<rect width="5" height="5"
  style="fill:#f9f9f9;fill-opacity:0.9" />
<path d="M0 5L5 0ZM6 4L4 6ZM-1 1L1 -1Z" style="stroke:#e9e9e9;stroke-width:1;stroke-opacity:0.8"></path>
</svg>