<?xml version="1.0" encoding="utf-8"?>
<!-- Generator: Adobe Illustrator 19.0.0, SVG Export Plug-In . SVG Version: 6.00 Build 0)  -->
<svg version="1.1" id="Capa_1" xmlns="http://www.w3.org/2000/svg" xmlns:xlink="http://www.w3.org/1999/xlink" x="0px" y="0px"
	 viewBox="-220 222 58 58" style="enable-background:new -220 222 58 58;" xml:space="preserve">
<style type="text/css">
	.st0{fill:#11689C;}
</style>
<g>
	<path class="st0" d="M-180,243.3v-11.1c0-5.6-4.9-10.2-11-10.2s-11,4.6-11,10.2c0,0.6,0.4,1,1,1s1-0.4,1-1c0-4.5,4-8.2,9-8.2
		s9,3.7,9,8.2v9.9c-0.2-0.1-0.4-0.2-0.6-0.3c-0.4-0.2-0.8-0.4-1.2-0.5c-0.3-0.1-0.5-0.2-0.8-0.3c-0.3-0.1-0.5-0.2-0.8-0.3
		c-0.4-0.1-0.9-0.2-1.3-0.3c-0.2,0-0.4-0.1-0.6-0.1c-0.5-0.1-1-0.2-1.6-0.2c-0.1,0-0.2,0-0.4,0c-0.6-0.1-1.2-0.1-1.8-0.1
		c-11,0-20,9-20,20c0,11,9,20,20,20s20-9,20-20C-171,253-174.6,246.9-180,243.3z M-191,278c-9.9,0-18-8.1-18-18c0-9.9,8.1-18,18-18
		c0.5,0,1.1,0,1.6,0.1c0.2,0,0.3,0,0.5,0.1c0.4,0,0.7,0.1,1.1,0.2c0.3,0,0.5,0.1,0.8,0.2c0.3,0.1,0.7,0.2,1,0.3
		c0.3,0.1,0.6,0.2,0.8,0.3c0.2,0.1,0.4,0.1,0.5,0.2c1,0.4,2,0.8,2.9,1.4c5.2,3.2,8.7,8.9,8.7,15.4C-173,269.9-181.1,278-191,278z"/>
	<path class="st0" d="M-179,259h-3.1c-0.2-1.7-0.9-3.3-1.9-4.6l2.2-2.2c0.4-0.4,0.4-1,0-1.4c-0.4-0.4-1-0.4-1.4,0l-2.2,2.2
		c-1.3-1-2.9-1.7-4.6-1.9V248c0-0.6-0.4-1-1-1s-1,0.4-1,1v3.1c-1.7,0.2-3.3,0.9-4.6,1.9l-2.2-2.2c-0.4-0.4-1-0.4-1.4,0
		c-0.4,0.4-0.4,1,0,1.4l2.2,2.2c-1,1.3-1.7,2.9-1.9,4.6h-3.1c-0.6,0-1,0.4-1,1s0.4,1,1,1h3.1c0.2,1.7,0.9,3.3,1.9,4.6l-2.2,2.2
		c-0.4,0.4-0.4,1,0,1.4c0.2,0.2,0.5,0.3,0.7,0.3s0.5-0.1,0.7-0.3l2.2-2.2c1.3,1,2.9,1.7,4.6,1.9v3.1c0,0.6,0.4,1,1,1
		c0.6,0,1-0.4,1-1v-3.1c1.7-0.2,3.3-0.9,4.6-1.9l2.2,2.2c0.2,0.2,0.5,0.3,0.7,0.3s0.5-0.1,0.7-0.3c0.4-0.4,0.4-1,0-1.4l-2.2-2.2
		c1-1.3,1.7-2.9,1.9-4.6h3.1c0.6,0,1-0.4,1-1S-178.4,259-179,259z M-191,267c-3.9,0-7-3.1-7-7s3.1-7,7-7c3.9,0,7,3.1,7,7
		S-187.1,267-191,267z"/>
</g>
</svg>
