<?xml version="1.0" encoding="iso-8859-1"?>
<!-- Generator: Adobe Illustrator 19.0.0, SVG Export Plug-In . SVG Version: 6.00 Build 0)  -->
<svg xmlns="http://www.w3.org/2000/svg" xmlns:xlink="http://www.w3.org/1999/xlink" version="1.1" id="Layer_1" x="0px" y="0px" viewBox="0 0 512 512" style="enable-background:new 0 0 512 512;" xml:space="preserve" width="512px" height="512px">
<g>
	<g>
		<path d="M494.094,108.089l-2.528-2.527c-3.256-3.255-8.535-3.256-11.791,0.001c-3.255,3.257-3.255,8.535,0.001,11.79l2.527,2.526    c8.398,8.398,13.023,19.563,13.023,31.439c0,9.046-2.685,17.68-7.675,24.992l-13.028-13.028c-0.002-0.002-0.003-0.004-0.006-0.007    L348.706,37.367c-0.002-0.002-0.006-0.004-0.008-0.007l-13.02-13.019c17.295-11.759,41.105-9.981,56.426,5.341l64.092,64.092    c3.256,3.255,8.534,3.255,11.79,0c3.256-3.257,3.256-8.535,0-11.791l-64.092-64.092c-23.835-23.834-62.62-23.834-86.455,0    c-1.563,1.564-2.442,3.684-2.442,5.896s0.879,4.331,2.442,5.896l13.582,13.582l-5.785,5.785    c-3.941-2.067-8.347-3.166-12.925-3.166c-7.448,0-14.449,2.899-19.714,8.167c-8.817,8.818-10.481,22.12-4.995,32.633    L275.445,98.84c-3.941-2.067-8.347-3.166-12.924-3.166c-7.447,0-14.448,2.899-19.714,8.166    c-8.817,8.818-10.481,22.12-4.993,32.633l-11.26,11.26l-7.925-7.925c-3.256-3.255-8.535-3.255-11.79,0l-14.367,14.367    c-3.256,3.257-3.256,8.535,0,11.791c3.256,3.255,8.535,3.255,11.79,0l8.472-8.472l7.915,7.915c0.003,0.003,0.006,0.008,0.01,0.011    L322.251,267.01l32.242,32.242l-59.139,59.138l-14.463-14.463c9.092-14.467,7.347-33.843-5.234-46.425l-25.037-25.036    l-28.373-28.373c-0.004-0.004-0.01-0.009-0.016-0.013l-7.751-7.75c-7.075-7.077-16.483-10.973-26.49-10.973    c-7.165,0-14.025,1.999-19.94,5.732l-14.457-14.457l27.087-27.086c3.256-3.257,3.256-8.535,0-11.791    c-3.256-3.255-8.535-3.255-11.79,0l-32.982,32.982c-3.256,3.257-3.256,8.535,0,11.791l25.592,25.592    c3.256,3.255,8.535,3.255,11.79,0c3.927-3.926,9.148-6.089,14.7-6.089c5.553,0,10.773,2.161,14.7,6.089l1.87,1.87l-62.327,62.328    c-20.861-8.097-44.281-9.042-65.772-2.647l-6.212-6.213c-3.256-3.255-8.535-3.255-11.79,0L2.442,359.473    c-3.256,3.257-3.256,8.535,0,11.79l6.207,6.208C-1.9,412.816,7.769,451.745,34.004,477.98    c26.234,26.235,65.165,35.901,100.509,25.355l6.207,6.207c1.563,1.563,3.684,2.441,5.895,2.441c2.211,0,4.332-0.878,5.895-2.441    l56.018-56.019c3.256-3.257,3.256-8.535,0-11.791l-6.212-6.212c6.396-21.491,5.45-44.91-2.646-65.771l62.328-62.329l1.87,1.87    c8.105,8.106,8.105,21.295,0,29.401c-3.256,3.256-3.256,8.534,0,11.79l25.592,25.592c1.627,1.627,3.762,2.441,5.895,2.441    c2.133,0,4.267-0.814,5.895-2.441l70.929-70.929c1.564-1.564,2.442-3.684,2.442-5.896s-0.878-4.331-2.442-5.896l-7.924-7.925    l11.254-11.254c3.941,2.067,8.347,3.166,12.924,3.166c7.448,0,14.449-2.899,19.714-8.166c8.817-8.818,10.481-22.121,4.995-32.634    l12.156-12.156c3.941,2.066,8.347,3.166,12.925,3.166c7.447,0,14.449-2.899,19.714-8.167c8.817-8.818,10.481-22.12,4.993-32.633    l5.792-5.792l13.583,13.587c1.627,1.627,3.761,2.441,5.895,2.441c2.133,0,4.268-0.814,5.895-2.441    C505.64,183,512,167.649,512,151.319C512,134.989,505.64,119.637,494.094,108.089z M183.911,361.927    c-2.464,2.466-3.136,6.203-1.683,9.371c9.104,19.856,10.097,43.071,2.723,63.693c-1.085,3.035-0.325,6.423,1.955,8.703    l3.936,3.935l-44.228,44.228l-3.933-3.933c-1.591-1.591-3.723-2.441-5.897-2.441c-0.94,0-1.89,0.16-2.806,0.487    c-30.607,10.947-65.223,3.185-88.186-19.78c-22.963-22.963-30.727-57.577-19.779-88.183c1.086-3.035,0.325-6.424-1.954-8.703    l-3.933-3.934l44.228-44.227l3.936,3.936c2.279,2.279,5.667,3.037,8.702,1.955c20.624-7.374,43.839-6.381,63.694,2.722    c3.168,1.455,6.905,0.783,9.37-1.683l66.295-66.296l14.045,14.045l19.809,19.809L183.911,361.927z M352.464,273.641    L238.343,159.52l10.358-10.359l44.724,44.724l69.397,69.396L352.464,273.641z M396.357,257.388    c-2.117,2.115-4.931,3.281-7.924,3.281s-5.807-1.166-7.924-3.283l-31.478-31.478l-94.434-94.434    c-0.001-0.001-0.002-0.002-0.003-0.003c-4.365-4.371-4.364-11.476,0.003-15.845c2.117-2.117,4.932-3.281,7.925-3.281    c2.994,0,5.808,1.165,7.925,3.281l125.909,125.912c0,0.001,0.001,0.001,0.002,0.002    C400.726,245.912,400.726,253.018,396.357,257.388z M402.252,223.853L288.132,109.731l10.358-10.358L412.61,213.494    L402.252,223.853z M446.145,207.599c-2.117,2.115-4.931,3.281-7.924,3.281s-5.807-1.165-7.924-3.281c0,0,0-0.001-0.001-0.001    l-41.97-41.97l-83.94-83.94c-4.37-4.37-4.37-11.479,0-15.849c2.117-2.115,4.931-3.281,7.924-3.281    c2.992,0,5.807,1.166,7.924,3.283l125.912,125.912C450.515,196.119,450.515,203.229,446.145,207.599z M452.041,174.064    L337.92,59.943l4.89-4.89L456.93,169.174L452.041,174.064z" fill="#0d5679"/>
	</g>
</g>
<g>
	<g>
		<path d="M149.46,362.527c-24.249-24.249-63.701-24.25-87.95,0c-24.247,24.248-24.247,63.7,0,87.948    c11.631,11.631,27.1,18.096,43.559,18.206c0.02,0,0.038,0,0.057,0c4.579,0,8.305-3.696,8.336-8.282    c0.031-4.604-3.677-8.362-8.28-8.393c-12.047-0.08-23.368-4.811-31.88-13.322c-17.746-17.747-17.746-46.621,0-64.367    c17.746-17.748,46.621-17.748,64.367,0c17.746,17.746,17.746,46.62,0,64.366c-0.95,0.95-1.973,1.879-3.127,2.84    c-3.538,2.946-4.02,8.203-1.074,11.742c2.946,3.539,8.203,4.017,11.742,1.075c1.547-1.288,2.938-2.553,4.251-3.865    C173.706,426.228,173.706,386.775,149.46,362.527z" fill="#0d5679"/>
	</g>
</g>
<g>
</g>
<g>
</g>
<g>
</g>
<g>
</g>
<g>
</g>
<g>
</g>
<g>
</g>
<g>
</g>
<g>
</g>
<g>
</g>
<g>
</g>
<g>
</g>
<g>
</g>
<g>
</g>
<g>
</g>
</svg>
