<?xml version="1.0" encoding="utf-8"?>
<!-- Generator: Adobe Illustrator 21.0.2, SVG Export Plug-In . SVG Version: 6.00 Build 0)  -->
<svg version="1.1" xmlns="http://www.w3.org/2000/svg" xmlns:xlink="http://www.w3.org/1999/xlink" x="0px" y="0px"
	 viewBox="0 0 597.6 612" style="enable-background:new 0 0 597.6 612;" xml:space="preserve">
<style type="text/css">
	.st0{display:none;}
	.st1{display:inline;fill:none;stroke:#000000;stroke-width:5;stroke-miterlimit:10;}
	.st2{display:inline;fill:none;stroke:#000000;stroke-width:4;stroke-miterlimit:10;}
	.st3{display:inline;fill:#FFFFFF;stroke:#000000;stroke-width:4;stroke-miterlimit:10;}
	.st4{display:inline;fill:none;stroke:#000000;stroke-width:4.0799;stroke-miterlimit:10;}
	.st5{fill:none;stroke:#0D5679;stroke-width:16.6043;stroke-miterlimit:10;}
	.st6{fill:none;stroke:#0D5679;stroke-width:15.8836;stroke-miterlimit:10;}
	.st7{fill:none;stroke:#0D5679;stroke-width:20.2824;stroke-miterlimit:10;}
</style>
<g id="Layer_1" class="st0">
	<polygon class="st1" points="358.4,317.4 318.3,340.2 244.3,297.8 285.4,274.3 	"/>
	<polygon class="st2" points="244.9,214 285.4,191 285.4,274.3 244.3,297.8 	"/>
	<path class="st3" d="M286,187.9"/>
	<polygon class="st2" points="276.9,184.5 285.4,191 244.9,214 234.4,209.2 	"/>
	<path class="st3" d="M229.7,209.6"/>
	<polygon class="st2" points="358.4,317.4 359.2,329.6 317.6,352.6 318.3,340.2 	"/>
	<polyline class="st4" points="232.7,209.2 232,303 318.3,354.2 	"/>
</g>
<g id="Layer_2">
	<polygon class="st5" points="120.8,98.2 261.3,16.5 288.6,30.8 290,327.7 543.9,476.9 543.9,508.4 404.8,591.6 115,425.3 	"/>
	<path class="st5" d="M427.5,66.4"/>
	<polyline class="st6" points="535.7,472.1 403.7,548.8 149.4,407.7 292.4,329.6 	"/>
	<polyline class="st5" points="291.5,31.5 149.5,114.7 143.7,410.2 	"/>
	<path class="st5" d="M499,133.1"/>
	<line class="st5" x1="120.8" y1="98.2" x2="146.6" y2="114"/>
	<line class="st7" x1="406.2" y1="540.3" x2="404.8" y2="591.6"/>
	<path class="st5" d="M597.6,250.8"/>
</g>
</svg>
